Line	, thisOne	, thatOne	, thisOne2	, theOther	, instruction
7		, ?			, ?			, ?			, ?			, int thisOne, thatOne, thisOne2;
8		, ?			, ?			, ?			, 5			, const int theOther = 5;
9		, ?			, ?			, ?			, 5			, 
10		, 3			, ?			, ?			, 5			, thisOne = 3;
11		, 3			, 16		, ?			, 5			, thatOne = 2 * thisOne + 7 / thisOne * theOther;
12		, 3			, 16		, 13		, 5			, thisOne2 = thatOne * thisOne / 9 + 8;